"Name","Type","Note"
"REQ-0001 암호화된 비밀번호 사용 인증","Security","사용자가 로그인할 때 암호화된 비밀번호를 사용하여 인증해야 함"
"REQ-0002 최대 5초 내 반응","Non-Functional","커피 머신의 반응 시간은 최대 5초 이내여야 함"
"REQ-0003 1시간 미사용 시 자동 종료","Non-Functional","커피 머신은 1시간 동안 사용되지 않을 경우 자동으로 종료되어 전력 소비를 줄여야 함"
"REQ-0004 아메리카노, 라떼, 카푸치노 hot/ice 선택 가능","Feature","사용자는 아메리카노, 라떼, 카푸치노를 hot 또는 ice로 선택할 수 있어야 함"
"REQ-0005 컵 크기 small/medium/large 선택 가능","Feature","사용자는 컵의 크기를 small, medium, large 중에서 선택할 수 있어야 함"
"REQ-0006 주문 후 결제","Feature","사용자는 커피를 주문한 후 결제를 진행해야 함"
"REQ-0007 원두 보충 기능","Feature","관리자는 커피 머신 내의 원두를 보충할 수 있어야 함"
"REQ-0008 원두 부족 시 알림 기능","Feature","커피 머신은 남은 원두의 양을 측정하여, 부족할 경우 관리자에게 알림을 보내야 함"
